radial-gradient(circle at 20% 14%, rgba(27, 27, 27,0.05) 0%, rgba(27, 27, 27,0.05) 50%,rgba(126, 126, 126,0.05) 50%, rgba(126, 126, 126,0.05) 100%),radial-gradient(circle at 18% 51%, rgba(248, 248, 248,0.05) 0%, rgba(248, 248, 248,0.05) 50%,rgba(26, 26, 26,0.05) 50%, rgba(26, 26, 26,0.05) 100%),radial-gradient(circle at 29% 38%, rgba(160, 160, 160,0.05) 0%, rgba(160, 160, 160,0.05) 50%,rgba(212, 212, 212,0.05) 50%, rgba(212, 212, 212,0.05) 100%),linear-gradient(148deg, rgb(51,122,183),rgb(28,43,54))
radial-gradient(circle at 85% 1%, hsla(190,0%,93%,0.05) 0%, hsla(190,0%,93%,0.05) 96%,transparent 96%, transparent 100%),radial-gradient(circle at 14% 15%, hsla(190,0%,93%,0.05) 0%, hsla(190,0%,93%,0.05) 1%,transparent 1%, transparent 100%),radial-gradient(circle at 60% 90%, hsla(190,0%,93%,0.05) 0%, hsla(190,0%,93%,0.05) 20%,transparent 20%, transparent 100%),radial-gradient(circle at 79% 7%, hsla(190,0%,93%,0.05) 0%, hsla(190,0%,93%,0.05) 78%,transparent 78%, transparent 100%),radial-gradient(circle at 55% 65%, hsla(190,0%,93%,0.05) 0%, hsla(190,0%,93%,0.05) 52%,transparent 52%, transparent 100%),linear-gradient(135deg, rgb(37, 56, 222),rgb(96, 189, 244))
radial-gradient(circle at 85% 1%, hsla(190,0%,93%,0.05) 0%, hsla(190,0%,93%,0.05) 96%,transparent 96%, transparent 100%),radial-gradient(circle at 14% 15%, hsla(190,0%,93%,0.05) 0%, hsla(190,0%,93%,0.05) 1%,transparent 1%, transparent 100%),radial-gradient(circle at 60% 90%, hsla(190,0%,93%,0.05) 0%, hsla(190,0%,93%,0.05) 20%,transparent 20%, transparent 100%),radial-gradient(circle at 79% 7%, hsla(190,0%,93%,0.05) 0%, hsla(190,0%,93%,0.05) 78%,transparent 78%, transparent 100%),radial-gradient(circle at 55% 65%, hsla(190,0%,93%,0.05) 0%, hsla(190,0%,93%,0.05) 52%,transparent 52%, transparent 100%),linear-gradient(200deg, rgb(57,107,158),rgb(51,122,183))
radial-gradient(circle at 85% 1%, hsla(190,0%,93%,0.05) 0%, hsla(190,0%,93%,0.05) 96%,transparent 96%, transparent 100%),radial-gradient(circle at 14% 15%, hsla(190,0%,93%,0.05) 0%, hsla(190,0%,93%,0.05) 1%,transparent 1%, transparent 100%),radial-gradient(circle at 60% 90%, hsla(190,0%,93%,0.05) 0%, hsla(190,0%,93%,0.05) 20%,transparent 20%, transparent 100%),radial-gradient(circle at 79% 7%, hsla(190,0%,93%,0.05) 0%, hsla(190,0%,93%,0.05) 78%,transparent 78%, transparent 100%),radial-gradient(circle at 55% 65%, hsla(190,0%,93%,0.05) 0%, hsla(190,0%,93%,0.05) 52%,transparent 52%, transparent 100%),linear-gradient(135deg, rgb(51,122,183),rgb(91,144,191))